<?xml version="1.0" encoding="utf-8"?>
<!-- Generator: Adobe Illustrator 18.0.0, SVG Export Plug-In . SVG Version: 6.00 Build 0)  -->
<!DOCTYPE svg PUBLIC "-//W3C//DTD SVG 1.1//EN" "http://www.w3.org/Graphics/SVG/1.1/DTD/svg11.dtd">
<svg version="1.1" id="Слой_1" xmlns="http://www.w3.org/2000/svg" xmlns:xlink="http://www.w3.org/1999/xlink" x="0px" y="0px"
	 viewBox="0 0 42 42" enable-background="new 0 0 42 42" xml:space="preserve">
<g>
	<defs>
		<rect id="SVGID_1_" x="3.1" y="1" width="35.8" height="40"/>
	</defs>
	<clipPath id="SVGID_2_">
		<use xlink:href="#SVGID_1_"  overflow="visible"/>
	</clipPath>
	<path clip-path="url(#SVGID_2_)" fill="#343760" d="M24,19.4c-0.3,0-0.5,0.1-0.7,0.3l-1.6,1.6c-0.2-0.1-0.5-0.1-0.7-0.1
		s-0.5,0-0.7,0.1L17,17.9c-0.2-0.2-0.4-0.3-0.7-0.3c-0.3,0-0.5,0.1-0.7,0.3c-0.2,0.2-0.3,0.4-0.3,0.7c0,0.3,0.1,0.5,0.3,0.7l3.3,3.3
		c-0.1,0.2-0.1,0.5-0.1,0.7c0,1.2,1,2.2,2.2,2.2c1.2,0,2.2-1,2.2-2.2c0-0.2,0-0.5-0.1-0.7l1.6-1.6c0.4-0.4,0.4-1,0-1.4
		C24.5,19.5,24.3,19.4,24,19.4 M20.6,23.4c0-0.2,0.2-0.4,0.4-0.4c0.2,0,0.4,0.2,0.4,0.4c0,0.2-0.2,0.4-0.4,0.4
		C20.8,23.8,20.6,23.6,20.6,23.4"/>
	<path clip-path="url(#SVGID_2_)" fill="#343760" d="M31.6,10l0.9-1.2l3.9,2.7c0.2,0.1,0.4,0.2,0.6,0.2c0.1,0,0.1,0,0.2,0
		c0.3,0,0.5-0.2,0.6-0.4c2.1-2.9,1.3-7-1.6-9.1C35,1.4,33.7,1,32.4,1c-2.1,0-4.1,1-5.3,2.8c-0.3,0.5-0.2,1.1,0.2,1.4l3.5,2.4
		l-0.9,1.2c-2.7-1.7-5.8-2.5-8.9-2.5c-3.2,0-6.2,0.9-8.9,2.5l-0.9-1.2l3.5-2.4c0.5-0.3,0.6-0.9,0.2-1.4C13.7,2,11.7,1,9.6,1
		C8.3,1,7,1.4,5.9,2.2c-2.9,2.1-3.7,6.1-1.6,9.1c0.2,0.2,0.4,0.4,0.6,0.4c0.1,0,0.1,0,0.2,0c0.2,0,0.4-0.1,0.6-0.2l3.9-2.7l0.9,1.2
		c-4.1,3.3-6.5,8.1-6.5,13.4c0,5.7,2.8,11,7.6,14.2l-1.3,1.9C10,39.6,10,39.9,10,40.2c0,0.3,0.2,0.5,0.4,0.6
		c0.2,0.1,0.4,0.2,0.6,0.2c0.3,0,0.6-0.2,0.8-0.4l1.4-2c2.4,1.2,5.1,1.9,7.8,1.9c2.7,0,5.4-0.6,7.8-1.9l1.4,2
		c0.2,0.3,0.5,0.4,0.8,0.4c0.2,0,0.4-0.1,0.6-0.2c0.5-0.3,0.6-0.9,0.2-1.4l-1.3-1.9c4.7-3.2,7.6-8.5,7.6-14.2
		C38.1,18.1,35.7,13.3,31.6,10 M12.6,4.2l-7.2,5C4.6,7.3,5.3,5,7,3.8C7.8,3.3,8.7,3,9.6,3C10.7,3,11.8,3.4,12.6,4.2 M29.4,4.2
		c0.8-0.7,1.9-1.2,3-1.2c0.9,0,1.8,0.3,2.6,0.8c1.7,1.2,2.4,3.4,1.6,5.4L29.4,4.2z M36,23.4c0,8.3-6.8,15-15,15c-8.3,0-15-6.8-15-15
		s6.8-15,15-15C29.3,8.3,36,15.1,36,23.4"/>
	<path clip-path="url(#SVGID_2_)" fill="#343760" d="M21,10.8c-6.9,0-12.6,5.6-12.6,12.6c0,6.9,5.6,12.6,12.6,12.6
		s12.6-5.6,12.6-12.6C33.6,16.4,27.9,10.8,21,10.8 M28.8,29.7c-0.2-0.2-0.4-0.3-0.7-0.3c-0.3,0-0.5,0.1-0.7,0.3
		c-0.2,0.2-0.3,0.4-0.3,0.7c0,0.3,0.1,0.5,0.3,0.7l0.5,0.5c-1.7,1.4-3.7,2.2-5.8,2.4v-0.7c0-0.6-0.5-1-1-1c-0.6,0-1,0.5-1,1v0.7
		c-2.2-0.2-4.2-1-5.8-2.4l0.5-0.5c0.2-0.2,0.3-0.4,0.3-0.7c0-0.3-0.1-0.5-0.3-0.7c-0.2-0.2-0.4-0.3-0.7-0.3s-0.5,0.1-0.7,0.3
		l-0.5,0.5c-1.4-1.7-2.2-3.7-2.4-5.8H11c0.6,0,1-0.5,1-1c0-0.6-0.5-1-1-1h-0.7c0.2-2.2,1-4.2,2.4-5.8l0.5,0.5
		c0.2,0.2,0.4,0.3,0.7,0.3c0.3,0,0.5-0.1,0.7-0.3c0.4-0.4,0.4-1,0-1.4l-0.5-0.5c1.7-1.4,3.7-2.2,5.8-2.4v0.7c0,0.6,0.5,1,1,1
		c0.6,0,1-0.5,1-1v-0.7c2.2,0.2,4.2,1,5.8,2.4l-0.5,0.5c-0.4,0.4-0.4,1,0,1.4c0.2,0.2,0.4,0.3,0.7,0.3c0.3,0,0.5-0.1,0.7-0.3
		l0.5-0.5c1.4,1.7,2.2,3.7,2.4,5.8H31c-0.6,0-1,0.5-1,1c0,0.6,0.5,1,1,1h0.7c-0.2,2.2-1,4.2-2.4,5.8L28.8,29.7z"/>
</g>
</svg>
