<?xml version="1.0" encoding="utf-8"?>
<!-- Generator: Adobe Illustrator 16.0.0, SVG Export Plug-In . SVG Version: 6.00 Build 0)  -->
<!DOCTYPE svg PUBLIC "-//W3C//DTD SVG 1.1//EN" "http://www.w3.org/Graphics/SVG/1.1/DTD/svg11.dtd">
<svg version="1.1" id="Layer_1" xmlns="http://www.w3.org/2000/svg" xmlns:xlink="http://www.w3.org/1999/xlink" x="0px" y="0px"
	 width="265px" height="26px" viewBox="0 0 265 26" enable-background="new 0 0 265 26" xml:space="preserve">
<polygon fill="#BDD646" points="12,3 12,8 15,8 10,13 13,16 18,11 18,14 23,14 23,3 "/>
<path fill="#BDD646" d="M17.518,17c-0.969,2.372-3.297,4.045-6.018,4.045c-3.59,0-6.5-2.91-6.5-6.5c0-2.703,1.652-5.02,4-6V3
	C4,4,0,9.143,0,14.5C0,20.969,5.033,26,11.5,26c5.365,0,10.5-4,11.5-9H17.518z"/>
<polygon points="37,3 37,8 40,8 35,13 38,16 43,11 43,14 48,14 48,3 "/>
<path d="M42.518,17c-0.969,2.372-3.297,4.045-6.018,4.045c-3.59,0-6.5-2.91-6.5-6.5c0-2.703,1.652-5.02,4-6V3c-5,1-9,6.143-9,11.5
	C25,20.969,30.033,26,36.5,26c5.365,0,10.5-4,11.5-9H42.518z"/>
<polygon fill="#FFFFFF" points="62,3 62,8 65,8 60,13 63,16 68,11 68,14 73,14 73,3 "/>
<path fill="#FFFFFF" d="M67.518,17c-0.969,2.372-3.297,4.045-6.018,4.045c-3.59,0-6.5-2.91-6.5-6.5c0-2.703,1.652-5.02,4-6V3
	c-5,1-9,6.143-9,11.5C50,20.969,55.033,26,61.5,26c5.365,0,10.5-4,11.5-9H67.518z"/>
<polygon points="76,3 76,14 79,14 79,6 80.5,14 82.52,14 84,6 84,14 87,14 87,3 83,3 81.5,11 80,3 "/>
<polygon points="89,14 96,14 96,12 92,12 92,9 95,9 95,7 92,7 92,5 96,5 96,3 89,3 "/>
<polygon points="104,5 104,3 97,3 97,5 99,5 99,14 102,14 102,5 "/>
<path d="M107,3l-2.5,11h2.5l0.5-2h2l0.5,2h2.5L110,3h-2.961H107z M108.5,5l1,5h-2L108.5,5z"/>
<path d="M146,3l-2.5,11h2.5l0.5-2h2l0.5,2h2.5L149,3h-2.961H146z M147.5,5l1,5h-2L147.5,5z"/>
<path d="M116,9c0,2-1,3-1,3h-1v4h3v-2h4v2h3v-4h-1V3h-7C116,3,116,7.924,116,9z M121,12h-3.5c0,0,0.5-0.873,0.5-2s0-5,0-5h3V12z"/>
<polygon points="125,3 125,14 128,14 131,9 131,14 134,14 134,3 131,3 128,9 128,3 "/>
<polygon points="152,3 152,14 155,14 158,9 158,14 161,14 161,3 158,3 155,9 155,3 "/>
<path d="M137,7c-0.006-0.58,0-2,1.5-2c1.021,0,1.5,0.417,1.5,1c0,1.875-2,2-2,2v1c0,0,2-0.083,2,1.709c0,1-0.707,1.291-1.5,1.291
	c-1.5,0-1.496-1.381-1.5-2h-2c0.016,0.965,0,4,3.5,4s4-1.738,4-3.305C142.5,9.988,142,9,140.338,9h-0.035
	c1.697-1,1.693-2.12,1.693-2.813c0-1.542-0.996-3.09-3.496-3.09C135.656,3.098,135,6,135,7H137z"/>
<path d="M154,0c0.051,0.723,0,2,3,2s2.977-1.326,3-2h-2c-0.109,0.342,0,1-1,1s-0.943-0.652-1-1H154z"/>
<polygon points="162,3 162,14 165,14 165,9 167,9 167,14 170,14 170,3 167,3 167,7 165,7 165,3 "/>
<polygon fill="#FFFFFF" points="171,3 171,14 174,14 174,6 175.5,14 177.52,14 179,6 179,14 182,14 182,3 178,3 176.5,11 175,3 "/>
<polygon fill="#FFFFFF" points="184,14 191,14 191,12 187,12 187,9 190,9 190,7 187,7 187,5 191,5 191,3 184,3 "/>
<polygon fill="#FFFFFF" points="199,5 199,3 192,3 192,5 194,5 194,14 197,14 197,5 "/>
<path fill="#FFFFFF" d="M202,3l-2.5,11h2.5l0.5-2h2l0.5,2h2.5L205,3h-2.961H202z M203.5,5l1,5h-2L203.5,5z"/>
<path fill="#FFFFFF" d="M241,3l-2.5,11h2.5l0.5-2h2l0.5,2h2.5L244,3h-2.961H241z M242.5,5l1,5h-2L242.5,5z"/>
<path fill="#FFFFFF" d="M211,9c0,2-1,3-1,3h-1v4h3v-2h4v2h3v-4h-1V3h-7C211,3,211,7.924,211,9z M216,12h-3.5c0,0,0.5-0.873,0.5-2
	s0-5,0-5h3V12z"/>
<polygon fill="#FFFFFF" points="220,3 220,14 223,14 226,9 226,14 229,14 229,3 226,3 223,9 223,3 "/>
<polygon fill="#FFFFFF" points="247,3 247,14 250,14 253,9 253,14 256,14 256,3 253,3 250,9 250,3 "/>
<path fill="#FFFFFF" d="M232,7c-0.006-0.58,0-2,1.5-2c1.021,0,1.5,0.417,1.5,1c0,1.875-2,2-2,2v1c0,0,2-0.083,2,1.709
	c0,1-0.707,1.291-1.5,1.291c-1.5,0-1.496-1.381-1.5-2h-2c0.016,0.965,0,4,3.5,4s4-1.738,4-3.305C237.5,9.988,237,9,235.338,9h-0.035
	c1.697-1,1.693-2.12,1.693-2.813c0-1.542-0.996-3.09-3.496-3.09C230.656,3.098,230,6,230,7H232z"/>
<path fill="#FFFFFF" d="M249,0c0.051,0.723,0,2,3,2s2.977-1.326,3-2h-2c-0.109,0.342,0,1-1,1s-0.943-0.652-1-1H249z"/>
<polygon fill="#FFFFFF" points="257,3 257,14 260,14 260,9 262,9 262,14 265,14 265,3 262,3 262,7 260,7 260,3 "/>
</svg>
