<?xml version="1.0" encoding="utf-8"?>
<!-- Generator: Adobe Illustrator 18.0.0, SVG Export Plug-In . SVG Version: 6.00 Build 0)  -->
<!DOCTYPE svg PUBLIC "-//W3C//DTD SVG 1.1//EN" "http://www.w3.org/Graphics/SVG/1.1/DTD/svg11.dtd">
<svg version="1.1" id="Слой_1" xmlns="http://www.w3.org/2000/svg" xmlns:xlink="http://www.w3.org/1999/xlink" x="0px" y="0px"
	 viewBox="0 0 42 48" enable-background="new 0 0 42 48" xml:space="preserve">
<g>
	<path fill="#C6C6C6" d="M22,36V7h-2v2v27c-8.2,0.3-15.4,4.3-20,10.2L2.4,48c4.2-5.5,11-9.1,18.7-9.1c7.6,0,14.2,3.5,18.5,8.8
		l2.4-1.8C37.4,40.1,30.2,36.3,22,36z"/>
	<path fill="#C6C6C6" d="M17,5c0-2.6,1.7-3.3,2.5-2h2.2c-0.5-2.1-1.9-3-3.3-3C16.7,0,15,1.5,15,5v6h2C17,11,17,5.2,17,5z"/>
</g>
</svg>
