<?xml version="1.0" encoding="utf-8"?>
<!-- Generator: Adobe Illustrator 18.0.0, SVG Export Plug-In . SVG Version: 6.00 Build 0)  -->
<!DOCTYPE svg PUBLIC "-//W3C//DTD SVG 1.1//EN" "http://www.w3.org/Graphics/SVG/1.1/DTD/svg11.dtd">
<svg version="1.1" id="Слой_1" xmlns="http://www.w3.org/2000/svg" xmlns:xlink="http://www.w3.org/1999/xlink" x="0px" y="0px"
	 viewBox="0 0 24 24" enable-background="new 0 0 24 24" xml:space="preserve">
<g>
	<defs>
		<rect id="SVGID_1_" x="0.5" y="0.5" width="23" height="23"/>
	</defs>
	<clipPath id="SVGID_2_">
		<use xlink:href="#SVGID_1_"  overflow="visible"/>
	</clipPath>
	<path clip-path="url(#SVGID_2_)" fill="#686868" d="M18.7,14.5c-0.5-0.5-1.1-0.8-1.8-0.8c-0.6,0-1.3,0.3-1.8,0.8l-1.4,1.4
		c0,0-0.2-0.1-0.2-0.1c-0.2-0.1-0.3-0.2-0.5-0.2c-1.4-0.9-2.7-2-3.9-3.5c-0.5-0.7-0.9-1.3-1.2-1.8c0.3-0.3,0.6-0.6,0.9-0.9L9,9.2
		C9.1,9.1,9.2,9.1,9.2,9c0.1-0.1,0.1-0.1,0.2-0.2C10,8.3,10.2,7.7,10.2,7c0-0.6-0.3-1.3-0.8-1.8L8.1,3.9C8,3.8,7.8,3.6,7.7,3.5
		C7.4,3.2,7.1,2.9,6.8,2.6C6.3,2.1,5.7,1.8,5,1.8S3.8,2.1,3.3,2.6L1.6,4.2C1,4.9,0.6,5.6,0.5,6.6C0.4,8,0.8,9.3,1.2,10.2
		c0.8,2.1,2,4.1,3.7,6.1c2.1,2.5,4.6,4.5,7.5,5.9c1.1,0.5,2.6,1.2,4.3,1.3c0.1,0,0.2,0,0.3,0c1.2,0,2.1-0.4,2.9-1.3l0,0l0,0
		c0,0,0,0,0,0c0.2-0.3,0.5-0.5,0.7-0.8l0.1-0.1c0.2-0.2,0.4-0.4,0.6-0.6c0.5-0.5,0.8-1.2,0.8-1.8c0-0.7-0.3-1.3-0.8-1.8L18.7,14.5z
		 M20.2,19.5l-0.1,0v0.1c-0.1,0.1-0.3,0.3-0.4,0.4l-0.1,0.1c-0.3,0.3-0.6,0.6-0.9,1c-0.4,0.5-1,0.7-1.6,0.7c-0.1,0-0.1,0-0.2,0
		c-1.4-0.1-2.7-0.6-3.6-1.1c-2.7-1.3-5-3.1-7-5.4c-1.6-1.9-2.7-3.7-3.4-5.6c-0.4-1.2-0.6-2-0.5-2.9c0-0.5,0.2-0.9,0.6-1.3l1.6-1.6
		C4.7,3.6,4.9,3.5,5,3.5c0.2,0,0.4,0.1,0.5,0.3l0,0c0.3,0.3,0.5,0.5,0.9,0.8c0.1,0.1,0.2,0.2,0.2,0.2C6.8,5,6.8,5,6.9,5.1l1.3,1.3
		c0.4,0.4,0.4,0.8,0,1.2c0,0-0.1,0.1-0.1,0.1C8,7.8,7.9,7.9,7.8,8C7.4,8.4,7,8.8,6.6,9.2c0,0,0,0,0,0c-0.5,0.5-0.4,1-0.3,1.3l0,0.1
		c0.3,0.8,0.8,1.6,1.6,2.6l0,0c1.3,1.6,2.7,2.9,4.3,3.9c0.2,0.1,0.4,0.2,0.6,0.3c0.2,0.1,0.3,0.2,0.5,0.2l0,0c0,0,0,0,0,0
		c0.2,0.1,0.4,0.1,0.6,0.1c0.3,0,0.6-0.1,0.9-0.4l1.6-1.6c0.1-0.1,0.3-0.3,0.6-0.3c0.2,0,0.4,0.2,0.5,0.3l2.6,2.6
		C20.5,18.8,20.5,19.1,20.2,19.5"/>
	<path clip-path="url(#SVGID_2_)" fill="#686868" d="M12.9,6.3c1.2,0.2,2.3,0.8,3.2,1.6c0.9,0.9,1.4,2,1.6,3.2
		c0.1,0.4,0.4,0.7,0.8,0.7c0,0,0.1,0,0.1,0l0,0c0.5-0.1,0.8-0.5,0.7-1c-0.3-1.6-1-3-2.1-4.1c-1.1-1.1-2.5-1.9-4.1-2.1
		c0,0-0.1,0-0.1,0c-0.4,0-0.8,0.3-0.8,0.7c0,0.2,0,0.5,0.1,0.6C12.5,6.1,12.7,6.3,12.9,6.3"/>
	<path clip-path="url(#SVGID_2_)" fill="#686868" d="M23.5,10.6C23,8.1,21.8,5.8,20,4c-1.8-1.8-4.1-3-6.7-3.5c0,0-0.1,0-0.1,0
		c-0.4,0-0.8,0.3-0.8,0.7c-0.1,0.5,0.2,0.9,0.7,1c2.2,0.4,4.2,1.4,5.7,3c1.6,1.6,2.6,3.6,3,5.7c0.1,0.4,0.4,0.7,0.8,0.7
		c0,0,0.1,0,0.1,0l0,0c0.2,0,0.4-0.2,0.6-0.3C23.5,11.1,23.5,10.9,23.5,10.6"/>
</g>
</svg>
