<?xml version="1.0" encoding="utf-8"?>
<!-- Generator: Adobe Illustrator 18.0.0, SVG Export Plug-In . SVG Version: 6.00 Build 0)  -->
<!DOCTYPE svg PUBLIC "-//W3C//DTD SVG 1.1//EN" "http://www.w3.org/Graphics/SVG/1.1/DTD/svg11.dtd">
<svg version="1.1" id="Слой_1" xmlns="http://www.w3.org/2000/svg" xmlns:xlink="http://www.w3.org/1999/xlink" x="0px" y="0px"
	 viewBox="0 0 210 210" enable-background="new 0 0 210 210" xml:space="preserve">
<g>
	<defs>
		<rect id="SVGID_1_" x="48" y="28.5" width="114" height="153"/>
	</defs>
	<clipPath id="SVGID_2_">
		<use xlink:href="#SVGID_1_"  overflow="visible"/>
	</clipPath>

		<path clip-path="url(#SVGID_2_)" fill="none" stroke="#ee46a0" stroke-width="3" stroke-linecap="round" stroke-miterlimit="10" d="
		M147.5,156h-85c-2.8,0-5-2.2-5-5V35c0-2.8,2.2-5,5-5h85c2.8,0,5,2.2,5,5v116C152.5,153.8,150.3,156,147.5,156z"/>

		<rect x="65.5" y="41" clip-path="url(#SVGID_2_)" fill="none" stroke="#ee46a0" stroke-width="3" stroke-linecap="round" stroke-miterlimit="10" width="79" height="103"/>

		<rect x="73.5" y="156" clip-path="url(#SVGID_2_)" fill="none" stroke="#ee46a0" stroke-width="3" stroke-linecap="round" stroke-miterlimit="10" width="63" height="16"/>

		<rect x="49.5" y="172" clip-path="url(#SVGID_2_)" fill="none" stroke="#ee46a0" stroke-width="3" stroke-linecap="round" stroke-miterlimit="10" width="111" height="8"/>

		<polyline clip-path="url(#SVGID_2_)" fill="none" stroke="#ee46a0" stroke-width="3" stroke-linecap="round" stroke-miterlimit="10" points="
		73.5,49 136.5,49 136.5,116 	"/>

		<line clip-path="url(#SVGID_2_)" fill="none" stroke="#ee46a0" stroke-width="3" stroke-linecap="round" stroke-miterlimit="10" x1="136.5" y1="124" x2="136.5" y2="128"/>
</g>
</svg>
