<?xml version="1.0" encoding="utf-8"?>
<!-- Generator: Adobe Illustrator 18.0.0, SVG Export Plug-In . SVG Version: 6.00 Build 0)  -->
<!DOCTYPE svg PUBLIC "-//W3C//DTD SVG 1.1//EN" "http://www.w3.org/Graphics/SVG/1.1/DTD/svg11.dtd">
<svg version="1.1" id="Слой_1" xmlns="http://www.w3.org/2000/svg" xmlns:xlink="http://www.w3.org/1999/xlink" x="0px" y="0px"
	 viewBox="0 0 210 210" enable-background="new 0 0 210 210" xml:space="preserve">
<g>
	<defs>
		<rect id="SVGID_1_" x="32.5" y="28.5" width="145" height="153"/>
	</defs>
	<clipPath id="SVGID_2_">
		<use xlink:href="#SVGID_1_"  overflow="visible"/>
	</clipPath>

		<path clip-path="url(#SVGID_2_)" fill="none" stroke="#ee46a0" stroke-width="3" stroke-linecap="round" stroke-miterlimit="10" d="
		M162,158H48c-2.8,0-5-2.2-5-5V39c0-2.8,2.2-5,5-5h114c2.8,0,5,2.2,5,5v114C167,155.8,164.8,158,162,158z"/>

		<path clip-path="url(#SVGID_2_)" fill="none" stroke="#ee46a0" stroke-width="3" stroke-linecap="round" stroke-miterlimit="10" d="
		M167,52H43V39c0-2.8,2.2-5,5-5h114c2.8,0,5,2.2,5,5V52z"/>

		<path clip-path="url(#SVGID_2_)" fill="none" stroke="#ee46a0" stroke-width="3" stroke-linecap="round" stroke-miterlimit="10" d="
		M167,100H43v53c0,2.8,2.2,5,5,5h114c2.8,0,5-2.2,5-5V100z"/>

		<line clip-path="url(#SVGID_2_)" fill="none" stroke="#ee46a0" stroke-width="3" stroke-linecap="round" stroke-miterlimit="10" x1="105" y1="52" x2="105" y2="100"/>

		<path clip-path="url(#SVGID_2_)" fill="none" stroke="#ee46a0" stroke-width="3" stroke-linecap="round" stroke-miterlimit="10" d="
		M38.6,95h-0.2C36,95,34,93,34,90.6V73.4c0-2.4,2-4.4,4.4-4.4h0.2c2.4,0,4.4,2,4.4,4.4v17.2C43,93,41,95,38.6,95z"/>

		<path clip-path="url(#SVGID_2_)" fill="none" stroke="#ee46a0" stroke-width="3" stroke-linecap="round" stroke-miterlimit="10" d="
		M171.6,95h-0.2c-2.4,0-4.4-2-4.4-4.4V73.4c0-2.4,2-4.4,4.4-4.4h0.2c2.4,0,4.4,2,4.4,4.4v17.2C176,93,174,95,171.6,95z"/>

		<path clip-path="url(#SVGID_2_)" fill="none" stroke="#ee46a0" stroke-width="3" stroke-linecap="round" stroke-miterlimit="10" d="
		M56,140H43v-26h13c2.8,0,5,2.2,5,5v16C61,137.8,58.8,140,56,140z"/>

		<path clip-path="url(#SVGID_2_)" fill="none" stroke="#ee46a0" stroke-width="3" stroke-linecap="round" stroke-miterlimit="10" d="
		M153,140h13v-26h-13c-2.8,0-5,2.2-5,5v16C148,137.8,150.2,140,153,140z"/>

		<rect x="47" y="158" clip-path="url(#SVGID_2_)" fill="none" stroke="#ee46a0" stroke-width="3" stroke-linecap="round" stroke-miterlimit="10" width="18" height="22"/>

		<rect x="144" y="158" clip-path="url(#SVGID_2_)" fill="none" stroke="#ee46a0" stroke-width="3" stroke-linecap="round" stroke-miterlimit="10" width="18" height="22"/>

		<rect x="65" y="158" clip-path="url(#SVGID_2_)" fill="none" stroke="#ee46a0" stroke-width="3" stroke-linecap="round" stroke-miterlimit="10" width="79" height="4"/>

		<line clip-path="url(#SVGID_2_)" fill="none" stroke="#ee46a0" stroke-width="3" stroke-linecap="round" stroke-miterlimit="10" x1="87" y1="118" x2="87" y2="135"/>

		<line clip-path="url(#SVGID_2_)" fill="none" stroke="#ee46a0" stroke-width="3" stroke-linecap="round" stroke-miterlimit="10" x1="96" y1="118" x2="96" y2="144"/>

		<line clip-path="url(#SVGID_2_)" fill="none" stroke="#ee46a0" stroke-width="3" stroke-linecap="round" stroke-miterlimit="10" x1="105" y1="118" x2="105" y2="144"/>

		<line clip-path="url(#SVGID_2_)" fill="none" stroke="#ee46a0" stroke-width="3" stroke-linecap="round" stroke-miterlimit="10" x1="113" y1="118" x2="113" y2="144"/>

		<line clip-path="url(#SVGID_2_)" fill="none" stroke="#ee46a0" stroke-width="3" stroke-linecap="round" stroke-miterlimit="10" x1="122" y1="118" x2="122" y2="135"/>

		<line clip-path="url(#SVGID_2_)" fill="none" stroke="#ee46a0" stroke-width="3" stroke-linecap="round" stroke-miterlimit="10" x1="43" y1="131" x2="60" y2="131"/>

		<line clip-path="url(#SVGID_2_)" fill="none" stroke="#ee46a0" stroke-width="3" stroke-linecap="round" stroke-miterlimit="10" x1="149" y1="131" x2="166" y2="131"/>

		<rect x="167" y="140" clip-path="url(#SVGID_2_)" fill="none" stroke="#ee46a0" stroke-width="3" stroke-linecap="round" stroke-miterlimit="10" width="4" height="9"/>

		<rect x="39" y="140" clip-path="url(#SVGID_2_)" fill="none" stroke="#ee46a0" stroke-width="3" stroke-linecap="round" stroke-miterlimit="10" width="4" height="9"/>

		<rect x="82" y="30" clip-path="url(#SVGID_2_)" fill="none" stroke="#ee46a0" stroke-width="3" stroke-linecap="round" stroke-miterlimit="10" width="44" height="4"/>
</g>
</svg>
