<?xml version="1.0" encoding="utf-8"?>
<!-- Generator: Adobe Illustrator 18.0.0, SVG Export Plug-In . SVG Version: 6.00 Build 0)  -->
<!DOCTYPE svg PUBLIC "-//W3C//DTD SVG 1.1//EN" "http://www.w3.org/Graphics/SVG/1.1/DTD/svg11.dtd">
<svg version="1.1" id="Слой_1" xmlns="http://www.w3.org/2000/svg" xmlns:xlink="http://www.w3.org/1999/xlink" x="0px" y="0px"
	 viewBox="0 0 210 210" enable-background="new 0 0 210 210" xml:space="preserve">
<g>
	<defs>
		<rect id="SVGID_1_" x="40.5" y="28.5" width="129" height="153"/>
	</defs>
	<clipPath id="SVGID_2_">
		<use xlink:href="#SVGID_1_"  overflow="visible"/>
	</clipPath>

		<polygon clip-path="url(#SVGID_2_)" fill="none" stroke="#ee46a0" stroke-width="3" stroke-linecap="round" stroke-miterlimit="10" points="
		168,180 42,180 42,30 156.1,30 168,41.9 	"/>

		<polyline clip-path="url(#SVGID_2_)" fill="none" stroke="#ee46a0" stroke-width="3" stroke-linecap="round" stroke-linejoin="bevel" stroke-miterlimit="10" points="
		167.9,42 156,42 156,30.1 	"/>
</g>
<rect x="58" y="45" fill="none" stroke="#ee46a0" stroke-width="3" stroke-linecap="round" stroke-linejoin="bevel" stroke-miterlimit="10" width="95" height="8"/>
<rect x="58" y="85" fill="none" stroke="#ee46a0" stroke-width="3" stroke-linecap="round" stroke-linejoin="bevel" stroke-miterlimit="10" width="16" height="55"/>
<rect x="82" y="85" fill="none" stroke="#ee46a0" stroke-width="3" stroke-linecap="round" stroke-linejoin="bevel" stroke-miterlimit="10" width="16" height="55"/>
<rect x="106" y="61" fill="none" stroke="#ee46a0" stroke-width="3" stroke-linecap="round" stroke-linejoin="bevel" stroke-miterlimit="10" width="47" height="55"/>
<rect x="58" y="148" fill="none" stroke="#ee46a0" stroke-width="3" stroke-linecap="round" stroke-linejoin="bevel" stroke-miterlimit="10" width="95" height="16"/>
<line fill="none" stroke="#ee46a0" stroke-width="3" stroke-linecap="round" stroke-linejoin="bevel" stroke-miterlimit="10" x1="58" y1="61" x2="98" y2="61"/>
<line fill="none" stroke="#ee46a0" stroke-width="3" stroke-linecap="round" stroke-linejoin="bevel" stroke-miterlimit="10" x1="58" y1="69" x2="82" y2="69"/>
<line fill="none" stroke="#ee46a0" stroke-width="3" stroke-linecap="round" stroke-linejoin="bevel" stroke-miterlimit="10" x1="58" y1="77" x2="94" y2="77"/>
<line fill="none" stroke="#ee46a0" stroke-width="3" stroke-linecap="round" stroke-linejoin="bevel" stroke-miterlimit="10" x1="106" y1="124" x2="153" y2="124"/>
<line fill="none" stroke="#ee46a0" stroke-width="3" stroke-linecap="round" stroke-linejoin="bevel" stroke-miterlimit="10" x1="106" y1="132" x2="121" y2="132"/>
<line fill="none" stroke="#ee46a0" stroke-width="3" stroke-linecap="round" stroke-linejoin="bevel" stroke-miterlimit="10" x1="106" y1="140" x2="153" y2="140"/>
<line fill="none" stroke="#ee46a0" stroke-width="3" stroke-linecap="round" stroke-linejoin="bevel" stroke-miterlimit="10" x1="129" y1="132" x2="137" y2="132"/>
</svg>
