<?xml version="1.0" encoding="utf-8"?>
<!-- Generator: Adobe Illustrator 18.0.0, SVG Export Plug-In . SVG Version: 6.00 Build 0)  -->
<!DOCTYPE svg PUBLIC "-//W3C//DTD SVG 1.1//EN" "http://www.w3.org/Graphics/SVG/1.1/DTD/svg11.dtd">
<svg version="1.1" id="Слой_1" xmlns="http://www.w3.org/2000/svg" xmlns:xlink="http://www.w3.org/1999/xlink" x="0px" y="0px"
	 viewBox="0 0 210 210" enable-background="new 0 0 210 210" xml:space="preserve">
<g>
	<defs>
		<rect id="SVGID_1_" x="24" y="28.5" width="162" height="153"/>
	</defs>
	<clipPath id="SVGID_2_">
		<use xlink:href="#SVGID_1_"  overflow="visible"/>
	</clipPath>

		<rect x="109.5" y="30" clip-path="url(#SVGID_2_)" fill="none" stroke="#36385c" stroke-width="3" stroke-linecap="round" stroke-miterlimit="10" width="19" height="122"/>
</g>
<rect x="128.5" y="68" fill="none" stroke="#36385c" stroke-width="3" stroke-linecap="round" stroke-miterlimit="10" width="5" height="47"/>
<g>
	<defs>
		<rect id="SVGID_3_" x="24" y="28.5" width="162" height="153"/>
	</defs>
	<clipPath id="SVGID_4_">
		<use xlink:href="#SVGID_3_"  overflow="visible"/>
	</clipPath>

		<rect x="25.5" y="77" clip-path="url(#SVGID_4_)" fill="none" stroke="#36385c" stroke-width="3" stroke-linecap="round" stroke-miterlimit="10" width="28" height="28"/>

		<polygon clip-path="url(#SVGID_4_)" fill="none" stroke="#36385c" stroke-width="3" stroke-linecap="round" stroke-miterlimit="10" points="
		25.8,105 44.5,105 44.5,180 35.1,180 	"/>
</g>
<polygon fill="none" stroke="#36385c" stroke-width="3" stroke-linecap="round" stroke-miterlimit="10" points="109.5,40.1
	53.5,77.4 53.5,105.4 109.5,142.8 "/>
<rect x="44.5" y="119" fill="none" stroke="#36385c" stroke-width="3" stroke-linecap="round" stroke-miterlimit="10" width="9" height="14"/>
<rect x="147.5" y="87" fill="none" stroke="#36385c" stroke-width="3" stroke-linecap="round" stroke-miterlimit="10" width="28" height="5"/>
<g>
	<defs>
		<rect id="SVGID_5_" x="24" y="28.5" width="162" height="153"/>
	</defs>
	<clipPath id="SVGID_6_">
		<use xlink:href="#SVGID_5_"  overflow="visible"/>
	</clipPath>

		<rect x="146.5" y="63" clip-path="url(#SVGID_6_)" fill="none" stroke="#36385c" stroke-width="3" stroke-linecap="round" stroke-miterlimit="10" width="38" height="5"/>
</g>
<rect x="147.5" y="110" fill="none" stroke="#36385c" stroke-width="3" stroke-linecap="round" stroke-miterlimit="10" width="9" height="5"/>
</svg>
