<?xml version="1.0" encoding="utf-8"?>
<!-- Generator: Adobe Illustrator 18.0.0, SVG Export Plug-In . SVG Version: 6.00 Build 0)  -->
<!DOCTYPE svg PUBLIC "-//W3C//DTD SVG 1.1//EN" "http://www.w3.org/Graphics/SVG/1.1/DTD/svg11.dtd">
<svg version="1.1" id="Слой_1" xmlns="http://www.w3.org/2000/svg" xmlns:xlink="http://www.w3.org/1999/xlink" x="0px" y="0px"
	 viewBox="0 0 210 210" enable-background="new 0 0 210 210" xml:space="preserve">
<g>

		<rect x="37" y="31" fill="none" stroke="#ee46a0" stroke-width="3" stroke-linecap="round" stroke-linejoin="round" stroke-miterlimit="10" width="136" height="121"/>
	<g>
		<path fill="none" stroke="#ee46a0" stroke-width="3" stroke-linecap="round" d="M95.9,108l-5,18H74.5l21.4-70h20.8l21.7,70h-17
			l-5.4-18H95.9z M113.6,97l-4.3-14.7c-1.2-4.1-2.5-9.2-3.5-13.3h-0.2c-1,4.1-2.1,9.3-3.2,13.3L98.3,97H113.6z"/>
	</g>

		<polygon fill="none" stroke="#ee46a0" stroke-width="3" stroke-linecap="round" stroke-linejoin="round" stroke-miterlimit="10" points="
		37,152 173,152 162,179 48,179 	"/>
	<polyline fill="none" stroke="#ee46a0" stroke-width="3" stroke-linecap="round" stroke-miterlimit="10" points="122,40 163,40
		163,77 	"/>
</g>
</svg>
