<?xml version="1.0" encoding="utf-8"?>
<!-- Generator: Adobe Illustrator 18.0.0, SVG Export Plug-In . SVG Version: 6.00 Build 0)  -->
<!DOCTYPE svg PUBLIC "-//W3C//DTD SVG 1.1//EN" "http://www.w3.org/Graphics/SVG/1.1/DTD/svg11.dtd">
<svg version="1.1" id="Слой_1" xmlns="http://www.w3.org/2000/svg" xmlns:xlink="http://www.w3.org/1999/xlink" x="0px" y="0px"
	 viewBox="0 0 18 16" enable-background="new 0 0 18 16" xml:space="preserve">
<path fill-rule="evenodd" clip-rule="evenodd" fill="#B5B5B5" d="M7.4,0.8L1,7.3c-0.4,0.4-0.4,1,0,1.4l6.4,6.5c0.4,0.4,1,0.4,1.4,0
	c0.4-0.4,0.4-1,0-1.4L4.1,9h12.1c0.6,0,1-0.4,1-1s-0.4-1-1-1H4.1l4.7-4.8c0.4-0.4,0.4-1,0-1.4C8.4,0.4,7.8,0.4,7.4,0.8z"/>
</svg>
